<svg id="Layer_1" enable-background="new 0 0 471.822 471.822" height="512" viewBox="0 0 471.822 471.822" width="512"
     xmlns="http://www.w3.org/2000/svg">
    <circle cx="216.666" cy="235.911" fill="#f1fafc" r="216.666"/>
    <path d="m216.666 235.911v216.666c6.502-3.981 121.405-77.168 121.405-216.666z" fill="#caf2fc"/>
    <path d="m216.666 19.245v216.666h121.405c.001-139.498-114.903-212.685-121.405-216.666z" fill="#d6f4fc"/>
    <path
        d="m216.666 19.245c6.502 3.981 121.405 77.168 121.405 216.666h95.261c.001-119.66-97.006-216.666-216.666-216.666z"
        fill="#bdeffc"/>
    <path d="m338.072 235.911c0 139.498-114.904 212.685-121.405 216.666 119.66 0 216.666-97.007 216.666-216.666z"
          fill="#b0edfc"/>
    <path d="m216.666 235.911v216.666c-6.502-3.981-121.405-77.168-121.405-216.666z" fill="#dbf5fc"/>
    <path d="m216.666 19.245v216.666h-121.405c0-139.498 114.904-212.685 121.405-216.666z" fill="#e8f8fc"/>
    <path d="m95.261 235.911c0 139.498 114.904 212.685 121.405 216.666-119.659 0-216.666-97.006-216.666-216.666z"
          fill="#e5f8fc"/>
    <g fill="#9fe2f5">
        <path
            d="m413.616 165.811c-5.813 5.833-15.356 5.874-21.21 0-5.866-5.845-5.877-15.354 0-21.21 7.581-7.581 20.342-4.992 24.47 4.86 2.212 5.38 1.211 11.879-3.26 16.35z"/>
        <path
            d="m428.467 129.751c-14.069-14.069-36.84-14.072-50.911-.001-3.125 3.125-8.19 3.124-11.314.001-3.124-3.124-3.125-8.189 0-11.313 20.321-20.323 53.214-20.326 73.539-.001 3.125 3.125 3.124 8.19 0 11.314-3.126 3.124-8.19 3.123-11.314 0z"/>
        <path
            d="m458.165 100.052c-30.482-30.484-79.822-30.489-110.309 0-3.124 3.123-8.189 3.123-11.313 0-3.125-3.124-3.125-8.189 0-11.314 36.738-36.738 96.196-36.739 132.936 0 3.125 3.125 3.125 8.189 0 11.314-3.125 3.124-8.189 3.124-11.314 0z"/>
    </g>
</svg>
